{
 "1": "Pumkin, Bonus: 3xCommon Boxes",
 "2": "Potato, Bonus: 3xCommon Boxes",
 "3": "Sugar Cane, Personal Weather, Bonus: 3xCommon Boxes",
 "4": "Cactus, Bonus: 3xCommon Boxes",
 "5": "Sweet Berries, Bonus: 3xCommon Boxes",
 "6": "Nether Wart, Personal Time, Bonus: 3xCommon Boxes",
 "7": "Lapis Lazuli, Bonus: 3xCommon Boxes",
 "8": "Coal, Bonus: 3xCommon Boxes",
 "9": "Redstone, Workbench, Bonus: 3xCommon Boxes",
 "10": "Iron Ingot, BLAST Upgrade: 1, Verticle Fly Ability, Bonus: 3xCommon Boxes",
 "11": "Gold Ore, Vote Upgrade: 1, Bonus: 3xCommon Boxes",
 "12": "Diamond, Coupon Upgrade: 1, Clear Inventory, Bonus: 3xCommon Boxes",
 "13": "Emerald, Fly Upgrade: 1, Bonus: 3xCommon Boxes",
 "14": "Nether Quartz, Claim Upgrade: 1, Bonus: 3xCommon Boxes",
 "15": "Raw Porkchop, Slot Upgrade: 1, Condense Items, Bonus: 3xCommon Boxes",
 "16": "Raw Chicken, Wage Upgrade: 1, Bonus: 3xCommon Boxes",
 "17": "Raw Beef, Waypoint Upgrade: 1, Bonus: 3xCommon Boxes",
 "18": "Raw Mutton, TBAG Upgrade: 1, Feed, Bonus: 3xCommon Boxes",
 "19": "Raw Rabbit, BLAST Upgrade: 2, Bonus: 3xCommon Boxes",
 "20": "Tropical Fish, Vote Upgrade: 2, TBAG Ability, Bonus: 3xCommon Boxes",
 "21": "Puffer Fish, Coupon Upgrade: 2, Heal, Bonus: 3xCommon Boxes",
 "22": "Raw Salmon, Fly Upgrade: 2, Bonus: 3xCommon Boxes",
 "23": "Raw Cod, Claim Upgrade: 2, Bonus: 3xCommon Boxes",
 "24": "Oak Log, Slot Upgrade: 2, Bonus: 3xCommon Boxes",
 "25": "Spruce Log, Wage Upgrade: 2, Bonus: 3xCommon Boxes",
 "26": "Birch Log, Waypoint Upgrade: 2, Bonus: 3xRare Boxes",
 "27": "Jungle Log, TBAG Upgrade: 2, Bonus: 3xRare Boxes",
 "28": "Acacia Log, BLAST Upgrade: 3, Bonus: 3xRare Boxes",
 "29": "Dark Oak Log, Vote Upgrade: 3, Bonus: 3xRare Boxes",
 "30": "Gunpower, Coupon Upgrade: 3, BLAST ability, Bonus: 3xRare Boxes",
 "31": "Rotten Flesh, Fly Upgrade: 3, Bonus: 3xRare Boxes",
 "32": "Bone, Claim Upgrade: 3, Bonus: 3xRare Boxes",
 "33": "Feather, Slot Upgrade: 3, Bonus: 3xRare Boxes",
 "34": "Spider Eye, Wage Upgrade: 3, Bonus: 3xRare Boxes",
 "35": "String, Waypoint Upgrade: 3, Bonus: 3xRare Boxes",
 "36": "Arrow, TBAG Upgrade: 3, Bonus: 3xRare Boxes",
 "37": "Ender Pearl, BLAST Upgrade: 4, Bonus: 3xRare Boxes",
 "38": "Vote Upgrade: 4, Bonus: 3xRare Boxes",
 "39": "Coupon Upgrade: 4, Bonus: 3xRare Boxes",
 "40": "Fly Upgrade: 4, Fisher Ability, Bonus: 3xRare Boxes",
 "41": "Claim Upgrade: 4, Bonus: 3xRare Boxes",
 "42": "Slot Upgrade: 4, Bonus: 3xRare Boxes",
 "43": "Wage Upgrade: 4, Bonus: 3xRare Boxes",
 "44": "Waypoint Upgrade: 4, Bonus: 3xRare Boxes",
 "45": "TBAG Upgrade: 4, Bonus: 3xRare Boxes",
 "46": "BLAST Upgrade: 5, Bonus: 3xRare Boxes",
 "47": "Vote Upgrade: 5, Bonus: 3xRare Boxes",
 "48": "Coupon Upgrade: 5, Bonus: 3xRare Boxes",
 "49": "Fly Upgrade: 5, Bonus: 3xRare Boxes",
 "50": "Claim Upgrade: 5, Bonus: 3xRare Boxes",
 "51": "Slot Upgrade: 5, Bonus: 3xEpic Boxes",
 "52": "Wage Upgrade: 5, Bonus: 3xEpic Boxes",
 "53": "Waypoint Upgrade: 5, Bonus: 3xEpic Boxes",
 "54": "TBAG Upgrade: 5, Bonus: 3xEpic Boxes",
 "55": "",
 "56": "",
 "57": "",
 "58": "",
 "59": "",
 "60": "",
 "61": "",
 "62": "",
 "63": "",
 "64": "",
 "65": "",
 "66": "",
 "67": "",
 "68": "",
 "69": "",
 "70": "",
 "71": "",
 "72": "",
 "73": "",
 "74": "",
 "75": "",
 "76": "",
 "77": "",
 "78": "",
 "79": "",
 "80": "",
 "81": "",
 "82": "",
 "83": "",
 "84": "",
 "85": "",
 "86": "",
 "87": "",
 "88": "",
 "89": "",
 "90": "",
 "91": "",
 "92": "",
 "93": "",
 "94": "",
 "95": "",
 "96": "",
 "97": "",
 "98": "",
 "99": "",
 "100": ""
}
